{"paging":{"page":1,"total":66775,"page_size":20,"pages":3339},"loans":[{"id":645484,"name":"Dennis","description":{"languages":["es","en"]},"status":"fundraising","funded_amount":100,"basket_amount":0,"image":{"id":1490531,"template_id":1},"activity":"Dairy","sector":"Agriculture","use":"to buy dairy cows.","location":{"country_code":"CR","country":"Costa Rica","town":"Puntarenas","geo":{"level":"country","pairs":"10 -84","type":"point"}},"partner_id":127,"posted_date":"2013-12-13T01:10:02Z","planned_expiration_date":"2014-02-11T01:10:02Z","loan_amount":1625,"borrower_count":1,"lender_count":4,"bonus_credit_eligibility":false},{"id":644320,"name":"Florence","description":{"languages":["en"]},"status":"in_repayment","funded_amount":500,"paid_amount":0,"image":{"id":1488751,"template_id":1},"activity":"Poultry","sector":"Agriculture","use":"To purchase more chicks and feed","location":{"country_code":"ZW","country":"Zimbabwe","town":"wedza","geo":{"level":"country","pairs":"-19 29","type":"point"}},"partner_id":305,"posted_date":"2013-12-12T00:50:04Z","planned_expiration_date":"2014-02-10T00:50:04Z","loan_amount":500,"borrower_count":1,"lender_count":14,"bonus_credit_eligibility":false},{"id":644308,"name":"Tabeth","description":{"languages":["en"]},"status":"in_repayment","funded_amount":500,"paid_amount":0,"image":{"id":1488731,"template_id":1},"activity":"Poultry","sector":"Agriculture","use":"to purchase more broiler chicks and chick feed","location":{"country_code":"ZW","country":"Zimbabwe","town":"Hurungwe","geo":{"level":"country","pairs":"-19 29","type":"point"}},"partner_id":305,"posted_date":"2013-12-11T22:50:02Z","planned_expiration_date":"2014-02-09T22:50:02Z","loan_amount":500,"borrower_count":1,"lender_count":11,"bonus_credit_eligibility":false},{"id":643991,"name":"Juma's Group","description":{"languages":["en"]},"status":"fundraising","funded_amount":1050,"basket_amount":0,"image":{"id":1487040,"template_id":1},"activity":"Farming","sector":"Agriculture","use":"to purchase hybrid seeds and fertilizers for the\u00a0cultivation\u00a0of maize, millet, and sorghum.","location":{"country_code":"KE","country":"Kenya","town":"Chwele","geo":{"level":"country","pairs":"1 38","type":"point"}},"partner_id":202,"posted_date":"2013-12-11T00:50:02Z","planned_expiration_date":"2014-02-09T00:50:02Z","loan_amount":3475,"borrower_count":5,"lender_count":26,"bonus_credit_eligibility":false},{"id":644468,"name":"Flavio Alfaro (Montecristi) Group","description":{"languages":["es","en"]},"status":"fundraising","funded_amount":3100,"basket_amount":0,"image":{"id":1489005,"template_id":1},"activity":"Clothing Sales","sector":"Clothing","use":"to buy clothing.","location":{"country_code":"EC","country":"Ecuador","town":"Montecristi","geo":{"level":"country","pairs":"-2 -77.5","type":"point"}},"partner_id":137,"posted_date":"2013-12-10T21:10:02Z","planned_expiration_date":"2014-02-08T21:10:02Z","loan_amount":4750,"borrower_count":12,"lender_count":56,"bonus_credit_eligibility":true},{"id":643941,"name":"Mariam","description":{"languages":["en"]},"status":"in_repayment","funded_amount":125,"paid_amount":0,"image":{"id":1488190,"template_id":1},"activity":"Used Clothing","sector":"Clothing","use":"to buy bales of second-hand clothes.","location":{"country_code":"KE","country":"Kenya","town":"Likoni","geo":{"level":"country","pairs":"1 38","type":"point"}},"partner_id":203,"posted_date":"2013-12-10T20:50:03Z","planned_expiration_date":"2014-02-08T20:50:03Z","loan_amount":125,"borrower_count":1,"lender_count":5,"bonus_credit_eligibility":false},{"id":643896,"name":"Jocelyn","description":{"languages":["en"]},"status":"in_repayment","funded_amount":125,"paid_amount":0,"image":{"id":1488122,"template_id":1},"activity":"General Store","sector":"Retail","use":"to buy more items like canned goods, laundry soap, shampoo, etc. to sell","location":{"country_code":"PH","country":"Philippines","town":"Calatrava, Negros Occidental","geo":{"level":"country","pairs":"13 122","type":"point"}},"partner_id":145,"posted_date":"2013-12-10T19:30:03Z","planned_expiration_date":"2014-02-08T19:30:03Z","loan_amount":125,"borrower_count":1,"lender_count":5,"bonus_credit_eligibility":true},{"id":643767,"name":"Jennifer","description":{"languages":["en"]},"status":"in_repayment","funded_amount":350,"paid_amount":0,"image":{"id":1481514,"template_id":1},"activity":"Bakery","sector":"Food","use":"to purchase additional ingredients for her bakery","location":{"country_code":"PH","country":"Philippines","town":"Tudela-Pan-ay ,Clarin,Misamis Occidental","geo":{"level":"country","pairs":"13 122","type":"point"}},"partner_id":126,"posted_date":"2013-12-10T14:10:02Z","planned_expiration_date":"2014-02-08T14:10:02Z","loan_amount":350,"borrower_count":1,"lender_count":11,"bonus_credit_eligibility":true},{"id":643754,"name":"Abshir Abdilahi","description":{"languages":["en"]},"status":"funded","funded_amount":500,"image":{"id":1487837,"template_id":1},"activity":"Higher education costs","sector":"Education","use":"to buy a laptop for education purposes.","location":{"country_code":"SO","country":"Somalia","town":"Hargeisa","geo":{"level":"country","pairs":"6 48","type":"point"}},"partner_id":325,"posted_date":"2013-12-10T12:30:03Z","planned_expiration_date":"2014-02-08T12:30:03Z","loan_amount":500,"borrower_count":1,"lender_count":20,"bonus_credit_eligibility":false},{"id":643755,"name":"Khadar Mahamoud","description":{"languages":["en"]},"status":"funded","funded_amount":500,"image":{"id":1487838,"template_id":1},"activity":"Higher education costs","sector":"Education","use":"to buy a laptop for education purposes.","location":{"country_code":"SO","country":"Somalia","town":"Hargeisa","geo":{"level":"country","pairs":"6 48","type":"point"}},"partner_id":325,"posted_date":"2013-12-10T12:30:03Z","planned_expiration_date":"2014-02-08T12:30:03Z","loan_amount":500,"borrower_count":1,"lender_count":19,"bonus_credit_eligibility":false},{"id":643668,"name":"Vingunguti 2 Group","description":{"languages":["en"]},"status":"in_repayment","funded_amount":3125,"paid_amount":0,"image":{"id":1487613,"template_id":1},"activity":"Animal Sales","sector":"Agriculture","use":"to buy cows, goats and sheep to resell. ","location":{"country_code":"TZ","country":"Tanzania","town":"Dar es Salaam","geo":{"level":"town","pairs":"-6.8 39.283333","type":"point"}},"partner_id":87,"posted_date":"2013-12-10T06:10:01Z","planned_expiration_date":"2014-02-08T06:10:01Z","loan_amount":3125,"borrower_count":2,"lender_count":45,"bonus_credit_eligibility":true},{"id":643654,"name":"Caroline","description":{"languages":["en"]},"status":"in_repayment","funded_amount":175,"paid_amount":0,"image":{"id":1389939,"template_id":1},"activity":"Food Stall","sector":"Food","use":"to buy more stock of cooking oil, eggs, maize flour, rice, tea leaves and sugar","location":{"country_code":"KE","country":"Kenya","town":"Msambweni","geo":{"level":"country","pairs":"1 38","type":"point"}},"partner_id":164,"posted_date":"2013-12-10T04:30:05Z","planned_expiration_date":"2014-02-08T04:30:05Z","loan_amount":175,"borrower_count":1,"lender_count":6,"bonus_credit_eligibility":true},{"id":641386,"name":"Matelda","description":{"languages":["en"]},"status":"in_repayment","funded_amount":475,"paid_amount":0,"image":{"id":1483967,"template_id":1},"activity":"Renewable Energy Products","sector":"Retail","use":"to buy clean energy products to sell in her community","location":{"country_code":"ID","country":"Indonesia","town":"Kupang, East Nusa Tenggara","geo":{"level":"country","pairs":"-5 120","type":"point"}},"partner_id":304,"posted_date":"2013-12-10T02:10:02Z","planned_expiration_date":"2014-02-08T02:10:02Z","loan_amount":475,"borrower_count":1,"lender_count":18,"bonus_credit_eligibility":false},{"id":638761,"name":"David","description":{"languages":["en"]},"status":"fundraising","funded_amount":1650,"basket_amount":0,"image":{"id":1479746,"template_id":1},"activity":"Restaurant","sector":"Food","use":"To rebrand and renovate this young entrepreneur's cafe and catering business.","location":{"country_code":"US","country":"United States","town":"Plainfield","geo":{"level":"country","pairs":"39.76 -98.5","type":"point"}},"partner_id":316,"posted_date":"2013-12-10T00:30:07Z","planned_expiration_date":"2014-02-08T00:30:07Z","loan_amount":5250,"borrower_count":1,"lender_count":47,"bonus_credit_eligibility":false},{"id":643606,"name":"Fatuma","description":{"languages":["en"]},"status":"in_repayment","funded_amount":350,"paid_amount":0,"image":{"id":1487532,"template_id":1},"activity":"Animal Sales","sector":"Agriculture","use":"to purchase more goats to sell.","location":{"country_code":"KE","country":"Kenya","town":"Tiribe","geo":{"level":"country","pairs":"1 38","type":"point"}},"partner_id":164,"posted_date":"2013-12-09T21:50:07Z","planned_expiration_date":"2014-02-07T21:50:07Z","loan_amount":350,"borrower_count":1,"lender_count":14,"bonus_credit_eligibility":true},{"id":643561,"name":"Caroline","description":{"languages":["en"]},"status":"in_repayment","funded_amount":14550,"paid_amount":0,"image":{"id":1486781,"template_id":1},"activity":"Renewable Energy Products","sector":"Retail","use":"to pay for solar energy systems and offer financing plans to lower-income farmers and farm employees.","location":{"country_code":"KE","country":"Kenya","geo":{"level":"country","pairs":"1 38","type":"point"}},"partner_id":276,"posted_date":"2013-12-09T21:30:05Z","planned_expiration_date":"2014-02-07T21:30:05Z","loan_amount":14550,"borrower_count":1,"lender_count":359,"bonus_credit_eligibility":false},{"id":643393,"name":"La Solidarite 3 Group","description":{"languages":["en"]},"status":"fundraising","funded_amount":3150,"basket_amount":0,"image":{"id":1487147,"template_id":1},"activity":"Food","sector":"Food","use":"to increase purchases of raw materials for his store.","location":{"country_code":"CG","country":"Congo","town":"Brazzaville","geo":{"level":"country","pairs":"-1 15","type":"point"}},"partner_id":165,"posted_date":"2013-12-09T18:50:11Z","planned_expiration_date":"2014-02-07T18:50:11Z","loan_amount":5025,"borrower_count":3,"lender_count":86,"bonus_credit_eligibility":false},{"id":643594,"name":"Mar\u00eda Magdalena","description":{"languages":["es","en"]},"status":"in_repayment","funded_amount":200,"paid_amount":0,"image":{"id":1487468,"template_id":1},"activity":"Farming","sector":"Agriculture","use":"to buy a plot of land (0.0715 hectares) to grow potatoes","location":{"country_code":"GT","country":"Guatemala","town":"Solola","geo":{"level":"town","pairs":"14.666667 -91.25","type":"point"}},"partner_id":246,"posted_date":"2013-12-09T16:30:05Z","planned_expiration_date":"2014-02-07T16:30:05Z","loan_amount":200,"borrower_count":1,"lender_count":7,"bonus_credit_eligibility":false},{"id":643741,"name":"Benigno","description":{"languages":["es","en"]},"status":"in_repayment","funded_amount":1225,"paid_amount":0,"image":{"id":1487768,"template_id":1},"activity":"Agriculture","sector":"Agriculture","use":"to buy fertilizer, soil amendments, seeds, etc.","location":{"country_code":"SV","country":"El Salvador","geo":{"level":"country","pairs":"13.833333 -88.916667","type":"point"}},"partner_id":81,"posted_date":"2013-12-09T15:50:02Z","planned_expiration_date":"2014-02-07T15:50:02Z","loan_amount":1225,"borrower_count":1,"lender_count":35,"bonus_credit_eligibility":true},{"id":643341,"name":"Mbyuta","description":{"languages":["en"]},"status":"in_repayment","funded_amount":175,"paid_amount":0,"image":{"id":1487070,"template_id":1},"activity":"Beauty Salon","sector":"Services","use":"to buy shampoo, conditioner and combs for use in her business.","location":{"country_code":"KE","country":"Kenya","town":"Msambweni","geo":{"level":"country","pairs":"1 38","type":"point"}},"partner_id":164,"posted_date":"2013-12-09T14:50:05Z","planned_expiration_date":"2014-02-07T14:50:05Z","loan_amount":175,"borrower_count":1,"lender_count":5,"bonus_credit_eligibility":true}]}